{
  "prepare_queue": {
    "installed": [],
    "uninstalled": []
  },
  "config_munge": {
    "files": {}
  },
  "installed_plugins": {
    "cordova-plugin-x-socialsharing": {
      "PACKAGE_NAME": "com.phonegap.helloworld"
    },
    "cordova-plugin-console": {
      "PACKAGE_NAME": "com.perdiocarro"
    },
    "cordova-plugin-statusbar": {
      "PACKAGE_NAME": "com.perdiocarro"
    },
    "cordova-plugin-whitelist": {
      "PACKAGE_NAME": "com.perdiocarro"
    },
    "cordova-plugin-gallerycamera": {
      "PACKAGE_NAME": "com.perdiocarro"
    },
    "cordova-plugin-image-picker": {
      "PACKAGE_NAME": "com.perdiocarro"
    },
    "cordova-plugin-camera": {
      "PACKAGE_NAME": "com.perdiocarro"
    },
    "cordova-plugin-splashscreen": {
      "PACKAGE_NAME": "com.perdiocarro"
    }
  },
  "dependent_plugins": {
    "es6-promise-plugin": {
      "PACKAGE_NAME": "com.phonegap.helloworld"
    },
    "cordova-plugin-compat": {
      "PACKAGE_NAME": "com.perdiocarro"
    },
    "cordova-plugin-file": {
      "PACKAGE_NAME": "com.perdiocarro"
    }
  }
}